digraph {
	node [fontsize=9 height=0.2 shape=circle width=0.2]
	A [fillcolor=lightgray shape=box style=filled]
	B [fillcolor=lightgray shape=box style=filled]
	"A XOR B" [fillcolor=lightblue style=filled]
	636 [fillcolor=white style=filled]
	1782 [fillcolor=white style=filled]
	A -> "A XOR B" [color=red penwidth=0.36510797779954907 style=solid]
	A -> 636 [color=green penwidth=0.5926881284356907 style=solid]
	636 -> "A XOR B" [color=green penwidth=0.7738306837172323 style=solid]
	B -> 636 [color=red penwidth=0.6718304252624139 style=solid]
	B -> 1782 [color=red penwidth=0.11058573765631553 style=solid]
	1782 -> "A XOR B" [color=green penwidth=0.23087094360652297 style=solid]
	B -> "A XOR B" [color=green penwidth=0.37099969580291425 style=solid]
}
